…
The most commonly observed value is 0. Most days it did not snow.

### Make a two-panel plot showing the average max temperature in January and in July in each station across years. Is there any observable / interpretable structure? Any outliers?

``` r
clean_ny_noaa %>% 
  filter(month == 7) %>% 
  group_by(id) %>% 
  summarize(
    mean_tmax = mean(tmax_C, na.rm = TRUE)
  ) %>% 
  drop_na(mean_tmax)
```

    ## # A tibble: 229 × 2
    ##    id          mean_tmax
    ##    <chr>           <dbl>
    ##  1 USC00300023      27.5
    ##  2 USC00300028      27.6
    ##  3 USC00300055      27.8
    ##  4 USC00300063      26.7
    ##  5 USC00300085      26.6
    ##  6 USC00300093      25.5
    ##  7 USC00300183      26.0
    ##  8 USC00300220      26.2
    ##  9 USC00300321      27.1
    ## 10 USC00300331      27.4
    ## # ℹ 219 more rows
…
join the datasets

``` r
mims_df = demo_df %>% 
  left_join(data_df, by = "seqn") %>% 
  mutate(
    sex = factor(sex, levels = c(1,2), labels = c("men", "women")),
    education = factor(education)
  )

mims_df
```

    ## # A tibble: 228 × 1,445
    ##     seqn sex     age   bmi education  min1   min2   min3  min4   min5   min6
    ##    <dbl> <fct> <dbl> <dbl> <fct>     <dbl>  <dbl>  <dbl> <dbl>  <dbl>  <dbl>
    ##  1 62161 men      22  23.3 2         1.11  3.12   1.47   0.938 1.60   0.145 
    ##  2 62164 women    44  23.2 3         1.92  1.67   2.38   0.935 2.59   5.22  
    ##  3 62169 men      21  20.1 2         5.85  5.18   4.76   6.48  6.85   7.24  
    ##  4 62174 men      80  33.9 3         5.42  3.48   3.72   3.81  6.85   4.45  
    ##  5 62177 men      51  20.1 2         6.14  8.06   9.99   6.60  4.57   2.78  
    ##  6 62178 men      80  28.5 2         0.167 0.429  0.131  1.20  0.0796 0.0487
    ##  7 62180 men      35  27.9 3         0.039 0      0      0     0.369  0.265 
    ##  8 62184 men      26  22.1 2         1.55  2.81   3.86   4.76  6.10   7.61  
    ##  9 62189 women    30  22.4 3         2.81  0.195  0.163  0     0.144  0.180 
    ## 10 62199 men      57  28   3         0.031 0.0359 0.0387 0.079 0.109  0.262 
    ## # ℹ 218 more rows
    ## # ℹ 1,434 more variables: min7 <dbl>, min8 <dbl>, min9 <dbl>, min10 <dbl>,
    ## #   min11 <dbl>, min12 <dbl>, min13 <dbl>, min14 <dbl>, min15 <dbl>,
    ## #   min16 <dbl>, min17 <dbl>, min18 <dbl>, min19 <dbl>, min20 <dbl>,
    ## #   min21 <dbl>, min22 <dbl>, min23 <dbl>, min24 <dbl>, min25 <dbl>,
    ## #   min26 <dbl>, min27 <dbl>, min28 <dbl>, min29 <dbl>, min30 <dbl>,
    ## #   min31 <dbl>, min32 <dbl>, min33 <dbl>, min34 <dbl>, min35 <dbl>, …
…
citi_df = bind_rows(citi_012020_df, citi_072020_df, citi_012024_df, citi_072024_df) %>% 
  rename(membership = member_casual)

citi_df
```

    ## # A tibble: 99,485 × 8
    ##    ride_id   rideable_type weekdays duration start_station_name end_station_name
    ##    <chr>     <chr>         <chr>       <dbl> <chr>              <chr>           
    ##  1 4BE06CB3… classic_bike  Tuesday     15.3  Columbus Ave & W … E 53 St & Madis…
    ##  2 26886E03… classic_bike  Wednesd…     5.31 2 Ave & E 96 St    1 Ave & E 110 St
    ##  3 24DC5606… classic_bike  Friday       9.69 Columbia St & Riv… Grand St & Eliz…
    ##  4 EEDC1053… classic_bike  Sunday       7.00 W 84 St & Columbu… Columbus Ave & …
    ##  5 2CD4BD4C… classic_bike  Friday       2.85 Forsyth St & Broo… Suffolk St & St…
    ##  6 E18682F9… classic_bike  Sunday      25.5  Allen St & Hester… Atlantic Ave & …
    ##  7 B9B2E896… classic_bike  Sunday       3.65 Lafayette St & Je… Washington Pl &…
    ##  8 DEF8F504… classic_bike  Sunday      38.3  28 Ave & 44 St     Broadway & Kosc…
    ##  9 17D44DA9… classic_bike  Thursday    38.5  Barrow St & Hudso… Emerson Pl & My…
    ## 10 0FD113A3… classic_bike  Tuesday      6.52 Carlton Ave & Par… Emerson Pl & My…
    ## # ℹ 99,475 more rows
    ## # ℹ 2 more variables: membership <chr>, month_year <dbl>
…
